The relationship between COVID-19, age groups and source of infection - A Hugo website
…
Opendatatoronto data

Opendatatoronto data contains 11 columns with different variables and 50 rows which mean there are 50 packages we can choose to analysis. I use list_packages() function to get following list of whole Torontodata packages. I’ll specifically choose “COVID-19 Cases in Toronto” package to do a statistic research.

packages <- list_packages()
packages
## # A tibble: 50 x 11
##    title id    topics civic_issues publisher excerpt dataset_category
##    <chr> <chr> <chr>  <chr>        <chr>     <chr>   <chr>           
##  1 Dail… 8a6e… City … Affordable … Shelter,… "Daily… Table           
##  2 Stre… 1db3… City … Mobility     Transpor… "Trans… Map             
##  3 Stre… 74f6… City … <NA>         Transpor… "Publi… Map             
##  4 Stre… 821f… City … <NA>         Transpor… "Publi… Map             
##  5 Stre… ccfd… City … <NA>         Transpor… "Poste… Map             
##  6 Stre… cf70… City … <NA>         Transpor… "Poste… Map             
##  7 Stre… 3944… City … <NA>         Transpor… "Litte… Map             
##  8 Stre… 99b1… City … <NA>         Transpor… "Infor… Map             
##  9 Stre… 71e6… Trans… <NA>         Transpor… "Bike … Map             
## 10 Stre… 0c4e… City … <NA>         Transpor… "Bench… Map             
## # … with 40 more rows, and 4 more variables: num_resources <int>,
## #   formats <chr>, refresh_rate <chr>, last_refreshed <date>

## # A tibble: 1 x 4
##   name          id                                   format last_modified
##   <chr>         <chr>                                <chr>  <date>       
## 1 COVID19 cases e5bf35bc-e681-43da-b2ce-0242d00922ad CSV    2020-09-23

Data

COVID_19_statistics is a dataframe which contains 18 columns with different variables which are related to COVID-19 infection. Each row is a summarize of individual case information(i.e there are totally 16,942 cases). I’m more interested in “Age Group” and “Source of Infection” So I’ll briefly introduce what these two columns are. The “Age Group” contains 10 different groups of people with different age periods which are ≤19, 20-29, 30-39, 40-49, 50-59, 60-69, 70-79, 80-89, 90+, unknown(blank). The “Source of Infection” contains most likely way that sporadic cases acquired their COVID-19 infection. It includes Travel, Close contact with a case, Institutional setting, Healthcare setting, Community, Pending, Unknown/missing and N/A. I will draw two graphs for two separate variables so that we can see which age groups people and what sources of Infection are more likely to get infected by COVID-19.
(We use Tierney (2017), Waring et al. (2020))

## # A tibble: 17,872 x 18
##     `_id` Assigned_ID `Outbreak Assoc… `Age Group` `Neighbourhood … FSA  
##     <int>       <int> <chr>            <chr>       <chr>            <chr>
##  1 143647           1 Sporadic         50 to 59 Y… Willowdale East  M2N  
##  2 143648           2 Sporadic         50 to 59 Y… Willowdale East  M2N  
##  3 143649           3 Sporadic         20 to 29 Y… Parkwoods-Donal… M3A  
##  4 143650           4 Sporadic         60 to 69 Y… Church-Yonge Co… M4W  
##  5 143651           5 Sporadic         60 to 69 Y… Church-Yonge Co… M4W  
##  6 143652           6 Sporadic         50 to 59 Y… Newtonbrook West M2R  
##  7 143653           7 Sporadic         80 to 89 Y… Milliken         M1V  
##  8 143654           8 Sporadic         60 to 69 Y… Willowdale West  M2N  
##  9 143655           9 Sporadic         50 to 59 Y… Willowdale East  M2N  
## 10 143656          10 Sporadic         60 to 69 Y… Henry Farm       M2J  
## # … with 17,862 more rows, and 12 more variables: `Source of Infection` <chr>,
## #   Classification <chr>, `Episode Date` <chr>, `Reported Date` <chr>, `Client
## #   Gender` <chr>, Outcome <chr>, `Currently Hospitalized` <chr>, `Currently in
## #   ICU` <chr>, `Currently Intubated` <chr>, `Ever Hospitalized` <chr>, `Ever
## #   in ICU` <chr>, `Ever Intubated` <chr>
…
